%YAML 1.1
%TAG !u! tag:unity3d.com,2011:
--- !u!114 &11400000
MonoBehaviour:
  m_ObjectHideFlags: 0
  m_PrefabParentObject: {fileID: 0}
  m_PrefabInternal: {fileID: 0}
  m_GameObject: {fileID: 0}
  m_Enabled: 1
  m_EditorHideFlags: 0
  m_Script: {fileID: 11500000, guid: 651163198cd8a40f7a39eaca05f33dc3, type: 3}
  m_Name: ChaseChaser
  m_EditorClassIdentifier: 
  actions:
  - {fileID: 11400000, guid: 5dfad1f1f0d694738b974801d1696337, type: 2}
  - {fileID: 11400000, guid: 6e54f8523444047cfb516cbea84df44a, type: 2}
  transitions:
  - decision: {fileID: 11400000, guid: a0b0b837bae3344b8a3afbfc10647b8c, type: 2}
    trueState: {fileID: 11400000, guid: 90a824eb91b5c4cd4a0014ce3692496a, type: 2}
    falseState: {fileID: 11400000, guid: 4045c252a8d014504987297e5528b71e, type: 2}
  SceneGizmoColour: {r: 1, g: 0, b: 0, a: 1}
