%YAML 1.1
%TAG !u! tag:unity3d.com,2011:
--- !u!114 &11400000
MonoBehaviour:
  m_ObjectHideFlags: 0
  m_PrefabParentObject: {fileID: 0}
  m_PrefabInternal: {fileID: 0}
  m_GameObject: {fileID: 0}
  m_Enabled: 1
  m_EditorHideFlags: 0
  m_Script: {fileID: 11500000, guid: 651163198cd8a40f7a39eaca05f33dc3, type: 3}
  m_Name: PatrolChaser
  m_EditorClassIdentifier: 
  actions:
  - {fileID: 11400000, guid: b783b337498ec42d581525695953bc69, type: 2}
  transitions:
  - decision: {fileID: 11400000, guid: 03917282c582f40cfa95ab32349d5851, type: 2}
    trueState: {fileID: 11400000, guid: cc2d39d2b57de43bab147f434c9ee012, type: 2}
    falseState: {fileID: 11400000, guid: 90a824eb91b5c4cd4a0014ce3692496a, type: 2}
  SceneGizmoColour: {r: 0.07778566, g: 0.8679245, b: 0.10683105, a: 1}
