%YAML 1.1
%TAG !u! tag:unity3d.com,2011:
--- !u!114 &11400000
MonoBehaviour:
  m_ObjectHideFlags: 0
  m_PrefabParentObject: {fileID: 0}
  m_PrefabInternal: {fileID: 0}
  m_GameObject: {fileID: 0}
  m_Enabled: 1
  m_EditorHideFlags: 0
  m_Script: {fileID: 11500000, guid: 651163198cd8a40f7a39eaca05f33dc3, type: 3}
  m_Name: RemainInState
  m_EditorClassIdentifier: 
  actions: []
  transitions: []
  SceneGizmoColour: {r: 0.5, g: 0.5, b: 0.5, a: 1}
